"","X1","index","Sheet","Firstname","Lastname","Postcode","Phone","Email","Signature","Phone.count","Postcode.count","Email.domain.valid"
"1",13,1,"Climate Petition - NOT YET ENTERED - 00058 - DONE.pdf.xlsx","Marion","Oke",3461,NA,"marionoke@bigpond.com","fearfelice","0",4,"Yes"
"2",16,4,"Climate Petition - NOT YET ENTERED - 00058 - DONE.pdf.xlsx","Kaye","Powell",3461,NA,"kayepowell56@gmail.com","Alwell","0",4,"Yes"
"3",17,5,"Climate Petition - NOT YET ENTERED - 00058 - DONE.pdf.xlsx","Elizabeth","Swan",3461,NA,"eswan53@gmail.com",NA,"0",4,"Yes"
"4",18,6,"Climate Petition - NOT YET ENTERED - 00058 - DONE.pdf.xlsx","Lesley","Painter",2040,NA,"painterl@bigpond.net.au",NA,"0",4,"Yes"
"5",19,7,"Climate Petition - NOT YET ENTERED - 00058 - DONE.pdf.xlsx","Peter","Faye",2040,NA,"pfaye@bipond.com",NA,"0",4,"Yes"
"6",20,8,"Climate Petition - NOT YET ENTERED - 00058 - DONE.pdf.xlsx","Charlie","Aarons",2040,NA,"charlieaarons@yahoo.com.au","cours-Carnes","0",4,"Yes"
"7",24,12,"Climate Petition - NOT YET ENTERED - 00058 - DONE.pdf.xlsx","Sandra","Cuming",4870,NA,"aero19@optusnet.com.au","SI","0",4,"Yes"
"8",26,1,"Climate Petition - NOT YET ENTERED - 00059 - DONE.pdf.xlsx","Lou","Taylor",3927,NA,"louisesuzannetaylor@hotmail.com","Klay","0",4,"Yes"
"9",31,6,"Climate Petition - NOT YET ENTERED - 00059 - DONE.pdf.xlsx","Anne","Lukis",3916,NA,"alukis1@hotmail.com","Il..","0",4,"Yes"
"10",32,7,"Climate Petition - NOT YET ENTERED - 00059 - DONE.pdf.xlsx","Mary","Daley",3145,NA,"marydaley@tpg.com.au","Highly","0",4,"Yes"
"11",37,12,"Climate Petition - NOT YET ENTERED - 00059 - DONE.pdf.xlsx","Emma","Dowling",3934,NA,"bloomej@hotmail.com",NA,"0",4,"Yes"
"12",38,13,"Climate Petition - NOT YET ENTERED - 00059 - DONE.pdf.xlsx","Mila","Knauf",3927,NA,"milaknauf@gmail.com",NA,"0",4,"Yes"
"13",57,6,"Climate Petition - NOT YET ENTERED - 00061 - DONE.pdf.xlsx","Margie","Reichelt",3926,NA,"margiereichelt@gmail.com","MR","0",4,"Yes"
"14",97,7,"Climate Petition - NOT YET ENTERED - 00064 Done.pdf.xlsx","Christopher","Gordon",2111,NA,"cg@christophergordon.net","Ciones","0",4,"Yes"
