,index,Sheet,Firstname,Lastname,Postcode,Phone,Email,Signature,Phone.count,Postcode.count,Email.domain.valid
0,1,Climate Petition - NOT YET ENTERED - 00047 - DONE.pdf.xlsx,Teena ,Watt,7112,0407042655,teenawatt@gmail.com,Neerfrank,10,4,Yes
1,2,Climate Petition - NOT YET ENTERED - 00047 - DONE.pdf.xlsx,Megan,Hircus,7112,0423165842,mhircus@gmail.com,,10,4,Yes
2,3,Climate Petition - NOT YET ENTERED - 00047 - DONE.pdf.xlsx,Kim,Cawthorn,7162,0415837702,Kimrickards@hotmail.com,,10,4,Yes
5,6,Climate Petition - NOT YET ENTERED - 00047 - DONE.pdf.xlsx,Ruth,Grahams,7053,0362078974,rlpops@netscape.com,siar,8,4,Yes
8,9,Climate Petition - NOT YET ENTERED - 00047 - DONE.pdf.xlsx,Julie,Roberts,7112,0447423303,julesatbrandywine@hotmail.com,Botmail.ConJuleKoles,10,4,Yes
9,10,Climate Petition - NOT YET ENTERED - 00047 - DONE.pdf.xlsx,Tahlia,Schreck,7054,0458378303,tahlia17@gmail.com,,10,4,Yes
11,12,Climate Petition - NOT YET ENTERED - 00047 - DONE.pdf.xlsx,Aaron,McCreath,7000,0424971055,aaron.mccreath@gmail.com,HMCostly,10,4,Yes
12,13,Climate Petition - NOT YET ENTERED - 00047 - DONE.pdf.xlsx,Elliott,McCreath,7000,0449891876,eiliahgoaongiaham@gmail.com,,10,4,Yes
39,1,Climate Petition - NOT YET ENTERED - 00060 - DONE.pdf.xlsx,Kate,Henshall,3941,0433544130,kateblomm@hotmail.com,fte,10,4,Yes
40,2,Climate Petition - NOT YET ENTERED - 00060 - DONE.pdf.xlsx,Jan,Schleiger,3916,0417892945,janpsycly@bigpond.com,bust,10,4,Yes
41,3,Climate Petition - NOT YET ENTERED - 00060 - DONE.pdf.xlsx,Penelope,Gerhardt,3926,0422132525,penelopepip3@bigpond.com,Belycot,10,4,Yes
43,5,Climate Petition - NOT YET ENTERED - 00060 - DONE.pdf.xlsx,Lissa,Boad,3926,0413385799,eltbee@gmail.com,,10,4,Yes
44,6,Climate Petition - NOT YET ENTERED - 00060 - DONE.pdf.xlsx,Andre,Houbar,3927,0407709812,andrehoubar@big.com,,10,4,Yes
45,7,Climate Petition - NOT YET ENTERED - 00060 - DONE.pdf.xlsx,Julie,McKay,3927,0425756237,mjul@bigpond.com,,10,4,Yes
46,8,Climate Petition - NOT YET ENTERED - 00060 - DONE.pdf.xlsx,Esther,Grimes,3926,0422658220,esther.grimes1@gmail.com,Ski,10,4,Yes
47,9,Climate Petition - NOT YET ENTERED - 00060 - DONE.pdf.xlsx,Kate,Majcher,3926,0435739239,Katemacherol@gmail.com,com,10,4,Yes
48,10,Climate Petition - NOT YET ENTERED - 00060 - DONE.pdf.xlsx,Jocelyn,Hansen,3915,0400893808,jochansen@hotmail.com,.com,10,4,Yes
49,11,Climate Petition - NOT YET ENTERED - 00060 - DONE.pdf.xlsx,Tracy,Pec,3931,0428883318,tracy@ahomewithsoul.com.au,commerThe,10,4,Yes
50,12,Climate Petition - NOT YET ENTERED - 00060 - DONE.pdf.xlsx,Shirley,Cameron,3926,0400041321,voice03@bigpond.net.au,,10,4,Yes
51,13,Climate Petition - NOT YET ENTERED - 00060 - DONE.pdf.xlsx,Natasha,Armstrong,3916,0400599112,tashharalambows@yahoo.com.au,ounustrong,10,4,Yes
52,1,Climate Petition - NOT YET ENTERED - 00061 - DONE.pdf.xlsx,Kirra,Diconza,3916,0488420378,Kirradiconza@gmail.com,Der,10,4,Yes
53,2,Climate Petition - NOT YET ENTERED - 00061 - DONE.pdf.xlsx,Annette,Bunyevich,3927,0434236089,annette_bunyevich@hotmail.com,aBungered,10,4,Yes
54,3,Climate Petition - NOT YET ENTERED - 00061 - DONE.pdf.xlsx,Annabel,Warner,3926,0425789322,annabelapwarner@hotmail.com,,10,4,Yes
55,4,Climate Petition - NOT YET ENTERED - 00061 - DONE.pdf.xlsx,Eliza,Lawrence,3916,0423339932,elizalawrence@hotmail.com,APralower.,10,4,Yes
56,5,Climate Petition - NOT YET ENTERED - 00061 - DONE.pdf.xlsx,Emily,Holsman,3926,0400148993,emilyholsman@gmail.com,EH,10,4,Yes
59,8,Climate Petition - NOT YET ENTERED - 00061 - DONE.pdf.xlsx,Shar,Lawrence,3926,0406046013,Sweetkarmakitchen@gmail.com,,10,4,Yes
60,9,Climate Petition - NOT YET ENTERED - 00061 - DONE.pdf.xlsx,Josh,Harben,3927,0432252776,Josh@blkstn.co,,10,4,Yes
62,11,Climate Petition - NOT YET ENTERED - 00061 - DONE.pdf.xlsx,Jesse,Lee,3926,0439291896,jessestu@gmail.com,,10,4,Yes
65,1,Climate Petition - NOT YET ENTERED - 00062 - DONE.pdf.xlsx,Louise,Taylor,3927,0409301998,Louisesuzannetaylor@hotmail.com,,10,4,Yes
66,2,Climate Petition - NOT YET ENTERED - 00062 - DONE.pdf.xlsx,Neil,Westbury,3926,0409301998,neilwestbury299@gmail.com,,10,4,Yes
68,4,Climate Petition - NOT YET ENTERED - 00062 - DONE.pdf.xlsx,Sasha,Taylor,3926,0412694145,sasha.p.t@icloud.com,,10,4,Yes
69,5,Climate Petition - NOT YET ENTERED - 00062 - DONE.pdf.xlsx,Neil,Adams,3926,0418638589,neiladums0@gmail.com,notte,10,4,Yes
70,6,Climate Petition - NOT YET ENTERED - 00062 - DONE.pdf.xlsx,Jane,McDonell,3926,0411399212,janemcdonell@live.com.au,gicalw),10,4,Yes
71,7,Climate Petition - NOT YET ENTERED - 00062 - DONE.pdf.xlsx,Liz,O'Brien,3931,0409858658,liz.obrien1@bigpond.com,,10,4,Yes
72,8,Climate Petition - NOT YET ENTERED - 00062 - DONE.pdf.xlsx,Peta,Briese,3931,0401935988,petabriese@hotmail.com,ks,10,4,Yes
74,10,Climate Petition - NOT YET ENTERED - 00062 - DONE.pdf.xlsx,Paola,Ferretti,3920,0404985324,paolafe77@yahoo.it,,10,4,Yes
75,11,Climate Petition - NOT YET ENTERED - 00062 - DONE.pdf.xlsx,Lisa,Hodgson,3919,0459727973,adamlisa4@bigpond.com,,10,4,Yes
76,12,Climate Petition - NOT YET ENTERED - 00062 - DONE.pdf.xlsx,Haylen,Newman,3920,0405367157,haylen8@hotmail.com,bayle,10,4,Yes
77,13,Climate Petition - NOT YET ENTERED - 00062 - DONE.pdf.xlsx,Adam,Hodgson,3919,0459727973,a.hodgson@coreslove.com,.com,10,4,No
79,2,Climate Petition - NOT YET ENTERED - 00063 DONE.pdf.xlsx,Adriana,Filiuta,2111,0409983217,adrianafiliuta@yahoo.com,conIFelts.,10,4,Yes
80,3,Climate Petition - NOT YET ENTERED - 00063 DONE.pdf.xlsx,Jennifer,Warren,2110,0420722975,jenzren@hotmail.com,Tencel,10,4,Yes
81,4,Climate Petition - NOT YET ENTERED - 00063 DONE.pdf.xlsx,Faith,Lightfoot,2011,0412726950,flightfoot@hotmail.com,flightlot,10,4,Yes
82,5,Climate Petition - NOT YET ENTERED - 00063 DONE.pdf.xlsx,Chris,Jensen,2031,0293995202,Cpjensen1@hotmail.com,,8,4,Yes
83,6,Climate Petition - NOT YET ENTERED - 00063 DONE.pdf.xlsx,Danny,Ward,2031,0296659796,gigs_r_us@hotmail.com,,8,4,Yes
84,7,Climate Petition - NOT YET ENTERED - 00063 DONE.pdf.xlsx,Jack,Torres,2025,0425299237,jtorres@yahoo.com,,10,4,Yes
85,8,Climate Petition - NOT YET ENTERED - 00063 DONE.pdf.xlsx,Sue,Bernard,2011,0414612769,suezana.bernard@gmail.com,gmail.comS,10,4,Yes
86,9,Climate Petition - NOT YET ENTERED - 00063 DONE.pdf.xlsx,Sarah,Liebetrau,2111,0407688912,sarahliebetrau@gmail.com,huelbeter,10,4,Yes
87,10,Climate Petition - NOT YET ENTERED - 00063 DONE.pdf.xlsx,Venetia,Cameron,2111,0401263926,venetia9879@gmail.com,,10,4,Yes
89,12,Climate Petition - NOT YET ENTERED - 00063 DONE.pdf.xlsx,Angela,Buchanan,2131,0422732791,AngelaPhoto@hotmail.com,Ah.,10,4,Yes
90,13,Climate Petition - NOT YET ENTERED - 00063 DONE.pdf.xlsx,Katie,Taylor,2110,0430466996,katie.perry7@gmail.com,tr,10,4,Yes
91,1,Climate Petition - NOT YET ENTERED - 00064 Done.pdf.xlsx,James,Shaw,2112,0298072235,service@opmecopiers.com,thaw,8,4,No
92,2,Climate Petition - NOT YET ENTERED - 00064 Done.pdf.xlsx,Eric,Myers,2122,0425212568,emyers123@tpg.com,,10,4,Yes
93,3,Climate Petition - NOT YET ENTERED - 00064 Done.pdf.xlsx,Alfred,Wilson,2150,0296355588,alfred@rivaside.com.au,Roule,10,4,Yes
99,9,Climate Petition - NOT YET ENTERED - 00064 Done.pdf.xlsx,Kathleen,Powell,2112,0416014442,uZkaus@gmail.com,KakePowell,10,4,Yes
100,10,Climate Petition - NOT YET ENTERED - 00064 Done.pdf.xlsx,Yu Jung,Choi,2114,0430184040,yujungchoi@yahoo.com,layay,10,4,Yes
103,13,Climate Petition - NOT YET ENTERED - 00064 Done.pdf.xlsx,Benny,Roe,2110,0416119897,benjaminjohnroe@gmail.com,,10,4,Yes
104,1,Climate Petition - NOT YET ENTERED - 00065 Done.pdf.xlsx,Samuel,Johns,2122,0432269259,samuel.johns@students.mq.edu.au,,10,4,Yes
105,2,Climate Petition - NOT YET ENTERED - 00065 Done.pdf.xlsx,Olivia,Green,2066,0478084727,olivia.louise.green92@gmail.com,foren,10,4,Yes
106,3,Climate Petition - NOT YET ENTERED - 00065 Done.pdf.xlsx,Lindsay,Peters,2122,0418643064,lindsay.peters@bigpond.com,com,10,4,Yes
107,4,Climate Petition - NOT YET ENTERED - 00065 Done.pdf.xlsx,Janet,Ellis,2119,0400498454,janetellis.again2@gmail.com,comJubelle,10,4,Yes
108,5,Climate Petition - NOT YET ENTERED - 00065 Done.pdf.xlsx,Cathy,Rytmeister,2111,0438683867,crytmeister@bigpond.com,Caffmes,10,4,Yes
109,6,Climate Petition - NOT YET ENTERED - 00065 Done.pdf.xlsx,Ted,Nettle,2122,0421753126,ted@nettle.org,,10,4,Yes
110,7,Climate Petition - NOT YET ENTERED - 00065 Done.pdf.xlsx,Jon,Ellis,2119,0438645367,jon.ellis2009@gmail.com,,10,4,Yes
111,8,Climate Petition - NOT YET ENTERED - 00065 Done.pdf.xlsx,Karen,Oliver,2111,0412502784,kpw002@hotmail.com,,10,4,Yes
112,9,Climate Petition - NOT YET ENTERED - 00065 Done.pdf.xlsx,Jill,Hartley,2113,0435090786,green.jill.hartly@gmail.com,,10,4,Yes
114,11,Climate Petition - NOT YET ENTERED - 00065 Done.pdf.xlsx,Sarjeet,Bhangal,2121,0419256101,sarjeet.arkan@hotmail.com,,10,4,Yes
115,12,Climate Petition - NOT YET ENTERED - 00065 Done.pdf.xlsx,Scott,Vance,2042,0403867501,scottvance@yahoo.com.au,AUne,10,4,Yes
116,1,Climate Petition - NOT YET ENTERED - 00066 - DONE.pdf.xlsx,Naomi,Aitchison,3130,0398781602,naitchison@tpg.com.au,than;JAAR,8,4,Yes
117,2,Climate Petition - NOT YET ENTERED - 00066 - DONE.pdf.xlsx,Samantha,Rennie,3071,0412122549,sam2rennie@gmail.com,,10,4,Yes
118,3,Climate Petition - NOT YET ENTERED - 00066 - DONE.pdf.xlsx,Rosemary,Lade,3101,0409352337,annabelle452@hotmail.com,AWhode.,10,4,Yes
119,4,Climate Petition - NOT YET ENTERED - 00066 - DONE.pdf.xlsx,Margaret,Anderson,3101,0398172302,anders@netspace.net.au,MTA,8,4,Yes
120,5,Climate Petition - NOT YET ENTERED - 00066 - DONE.pdf.xlsx,Helen,Allen,3145,0411379579,helenallen45@hotmail.com,comHAle,10,4,Yes
123,8,Climate Petition - NOT YET ENTERED - 00066 - DONE.pdf.xlsx,Kate,Nelson,3126,0398363697,katenbill@bigpond.com,Hathanhelhast,8,4,Yes
127,12,Climate Petition - NOT YET ENTERED - 00066 - DONE.pdf.xlsx,Ian,Gooding,3131,0398726228,iang@melbpc.org.au,agooding,8,4,Yes
